63,176,20
54,176,17
52,166,19
72,197,19
58,194,15
57,197,15
70,142,35
78,196,20
49,167,18
65,170,22
71,149,32
82,143,40
96,145,46
68,176,22
60,144,29
74,200,19
87,190,24
42,195,11
83,189,23
80,196,21
93,168,33
74,197,19
71,152,31
75,165,28
50,200,13
79,178,25
54,154,23
84,147,39
74,160,29
85,162,32
86,192,23
87,162,33
47,194,12
78,145,37
80,151,35
94,164,35
42,171,14
79,167,28
70,182,21
68,168,24
90,167,32
97,146,46
55,164,20
57,183,17
78,195,21
45,180,14
45,187,13
86,166,31
82,189,23
47,179,15
76,169,27
62,153,26
60,169,21
98,182,30
55,179,17
49,183,15
73,179,23
57,176,18
66,182,20
43,187,12
56,194,15
86,196,22
50,180,15
100,145,48
45,160,18
59,175,19
82,178,26
82,147,38
54,155,22
52,149,23
93,178,29
40,160,16
47,163,18
42,182,13
69,179,22
40,155,17
72,200,18
68,159,27
70,187,20
47,187,13
67,150,30
79,189,22
95,156,39
40,194,11
55,199,14
99,197,26
88,141,44
93,174,31
74,152,32
94,164,35
60,195,16
83,199,21
86,177,27
76,179,24
80,179,25
41,168,15
85,196,22
72,153,31
61,180,19
48,140,24
99,177,32
92,169,32
50,167,18
90,154,38
47,174,16
66,173,22
55,145,26
60,184,18
65,197,17
68,143,33
94,194,25
40,161,15
93,194,25
96,175,31
99,149,45
61,165,22
66,167,24
50,173,17
100,188,28
52,178,16
77,181,24
54,159,21
43,141,22
73,165,27
87,151,38
78,182,24
91,179,28
42,150,19
44,153,19
78,148,36
49,169,17
94,192,25
92,185,27
73,166,26
53,175,17
81,161,31
98,140,50
95,199,24
71,146,33
43,152,19
47,186,14
47,143,23
76,159,30
57,165,21
73,188,21
73,156,30
68,171,23
66,176,21
55,163,21
81,184,24
100,194,27
41,169,14
86,184,25
68,175,22
62,171,21
83,176,27
88,157,36
69,156,28
85,183,25
90,164,33
83,141,42
52,187,15
72,162,27
73,187,21
89,195,23
85,190,24
55,173,18
48,196,12
88,141,44
95,150,42
98,176,32
59,156,24
93,143,45
61,162,23
53,198,14
48,191,13
54,155,22
41,194,11
70,181,21
75,190,21
61,147,28
50,154,21
68,141,34
40,142,20
56,158,22
95,155,40
71,194,19
68,184,20
65,196,17
59,142,29
91,143,45
48,197,12
98,158,39
74,194,20
43,179,13
43,172,15
44,142,22
59,171,20
100,160,39
72,154,30
93,192,25
97,184,29
73,140,37
57,150,25
45,157,18
94,141,47
86,154,36
76,155,32
43,141,22
91,182,27
50,148,23
93,155,39
47,143,23
63,162,24
67,151,29
100,181,31
89,187,25
73,178,23
96,156,39
90,186,26
48,178,15
55,140,28
55,168,19
88,182,27
85,187,24
94,185,27
55,151,24
92,167,33
54,191,15
45,155,19
63,173,21
47,185,14
71,147,33
53,197,14
83,174,27
64,190,18
45,160,18
91,168,32
84,156,35
99,169,35
94,166,34
52,156,21
70,195,18
76,185,22
41,148,19
41,163,15
51,174,17
84,192,23
57,152,25
83,189,23
52,180,16
75,182,23
97,140,49
58,183,17
79,170,27
78,155,32
70,175,23
82,174,27
68,194,18
76,181,23
59,191,16
98,200,25
40,168,14
76,195,20
93,164,35
86,148,39
53,187,15
51,151,22
61,174,20
85,144,41
63,177,20
97,180,30
87,176,28
46,185,13
50,192,14
48,196,12
77,169,27
76,190,21
100,168,35
87,194,23
75,150,33
97,178,31
78,145,37
55,148,25
74,194,20
49,191,13
73,144,35
62,172,21
78,184,23
81,155,34
65,150,29
64,148,29
64,156,26
95,160,37
63,174,21
82,173,27
57,194,15
89,188,25
43,173,14
59,160,23
87,141,44
88,147,41
42,146,20
81,188,23
65,184,19
93,187,27
43,180,13
73,145,35
96,169,34
76,162,29
69,154,29
82,183,24
77,171,26
44,183,13
95,170,33
56,148,26
75,154,32
73,180,23
46,177,15
91,199,23
65,162,25
49,164,18
48,147,22
61,165,22
76,179,24
52,149,23
48,180,15
65,200,16
41,189,11
99,191,27
70,156,29
40,191,11
87,146,41
85,187,24
83,152,36
73,145,35
87,199,22
40,149,18
47,142,23
93,163,35
96,142,48
77,153,33
85,144,41
88,154,37
77,193,21
98,189,27
100,156,41
78,161,30
67,200,17
73,162,28
62,186,18
83,192,23
75,192,20
86,167,31
97,159,38
94,177,30
55,174,18
91,176,29
95,151,42
60,143,29
66,146,31
53,185,15
58,141,29
71,176,23
90,140,46
43,191,12
91,198,23
74,192,20
79,200,20
80,192,22
58,140,30
82,160,32
53,162,20
95,154,40
68,181,21
54,187,15
51,150,23
47,187,13
74,147,34
99,165,36
91,167,33
66,154,28
76,191,21
100,154,42
50,140,26
78,146,37
94,146,44
42,143,21
67,145,32
64,179,20
58,145,28
85,170,29
81,195,21
73,163,27
84,164,31
55,147,25
54,165,20
93,188,26
82,183,24
84,143,41
81,183,24
60,159,24
79,177,25
83,179,26
63,177,20
77,146,36
53,193,14
68,198,17
93,194,25
78,144,38
64,144,31
74,164,28
77,155,32
94,171,32
59,165,22
65,168,23
64,149,29
82,170,28
91,151,40
58,161,22
42,166,15
88,182,27
77,147,36
40,148,18
69,167,25
71,155,30
71,199,18
67,154,28
59,178,19
99,164,37
90,163,34
75,145,36
55,198,14
53,151,23
71,186,21
43,195,11
78,190,22
84,188,24
48,160,19
86,146,40
85,161,33
75,189,21
76,195,20
54,173,18
44,186,13
91,153,39
45,156,18
44,185,13
76,173,25
88,149,40
71,153,30
57,142,28
74,200,19
90,183,27
60,171,21
59,159,23
89,200,22
53,151,23
55,168,19
60,192,16
70,153,30
93,185,27
95,163,36
90,172,30
73,183,22
83,188,23
48,177,15
55,198,14
50,200,13
56,180,17
90,198,23
67,145,32
80,144,39
68,167,24
95,141,48
50,146,23
50,165,18
74,145,35
86,166,31
42,185,12
91,192,25
72,197,19
49,177,16
57,183,17
91,190,25
56,158,22
93,167,33
86,169,30
93,174,31
47,140,24
65,195,17
40,191,11
81,200,20
49,151,21
41,184,12
72,174,24
60,144,29
81,174,27
86,174,28
69,147,32
92,145,44
82,164,30
74,188,21
77,161,30
95,172,32
72,177,23
63,146,30
65,145,31
67,145,32
67,165,25
98,188,28
49,164,18
71,160,28
90,149,41
64,163,24
48,194,13
89,150,40
85,140,43
74,158,30
88,160,34
83,154,35
84,149,38
54,180,17
61,147,28
76,187,22
46,143,22
57,196,15
66,144,32
62,154,26
51,169,18
40,192,11
74,157,30
49,147,23
82,189,23
84,173,28
51,170,18
82,150,36
51,183,15
57,168,20
59,150,26
45,146,21
79,198,20
65,193,17
41,166,15
50,140,26
66,162,25
51,182,15
61,176,20
40,191,11
60,199,15
80,146,38
64,196,17
76,146,36
65,167,23
46,141,23
88,154,37
66,168,23
94,178,30
86,183,26
85,161,33
62,180,19
54,171,18
67,181,20
65,186,19
97,161,37
56,187,16
68,166,25
99,144,48
55,184,16
66,186,19
50,141,25
58,159,23
47,158,19
85,178,27
61,169,21
71,161,27
89,152,39
64,162,24
48,152,21
78,150,35
72,141,36
68,154,29
78,142,39
85,159,34
43,148,20
82,144,40
57,191,16
55,140,28
98,176,32
87,155,36
44,182,13
46,164,17
44,141,22
86,197,22
86,140,44
58,156,24
90,193,24
54,173,18
60,168,21
90,149,41
59,155,25
62,189,17
57,148,26
68,155,28
88,190,24
54,155,22
68,159,27
52,175,17
42,150,19
45,188,13
84,190,23
53,196,14
42,189,12
53,162,20
59,172,20
65,153,28
86,140,44
91,192,25
81,154,34
93,148,42
97,191,27
62,163,23
45,141,23
92,159,36
52,164,19
67,155,28
55,156,23
75,192,20
52,146,24
54,147,25
83,168,29
91,184,27
60,170,21
91,166,33
59,168,21
79,183,24
90,159,36
99,145,47
64,193,17
76,190,21
44,179,14
81,170,28
48,197,12
85,152,37
57,187,16
78,140,40
72,167,26
85,157,34
83,195,22
91,145,43
42,181,13
85,187,24
49,154,21
73,151,32
66,157,27
87,142,43
81,196,21
46,171,16
48,179,15
42,180,13
80,177,26
71,147,33
86,148,39
94,154,40
47,155,20
48,184,14
94,175,31
86,157,35
65,190,18
58,200,15
64,182,19
68,158,27
62,163,23
74,145,35
68,193,18
69,143,34
72,187,21
44,198,11
76,176,25
40,187,11
86,155,36
80,196,21
40,145,19
80,173,27
49,142,24
78,198,20
55,146,26
74,193,20
100,193,27
51,170,18
83,144,40
56,153,24
78,177,25
52,191,14
100,154,42
45,144,22
95,154,40
87,194,23
56,200,14
62,156,25
82,150,36
96,164,36
94,155,39
62,142,31
91,150,40
87,177,28
54,166,20
75,148,34
93,155,39
98,191,27
58,187,17
97,196,25
77,145,37
77,151,34
82,178,26
62,199,16
74,175,24
75,188,21
81,165,30
78,147,36
46,182,14
92,188,26
60,172,20
50,175,16
42,180,13
82,189,23
80,185,23
98,151,43
85,179,27
53,169,19
66,146,31
47,166,17
65,169,23
49,192,13
99,147,46
83,199,21
80,192,22
45,186,13
55,157,22
76,188,22
53,190,15
70,177,22
77,169,27
88,167,32
68,141,34
56,148,26
77,176,25
50,147,23
89,148,41
77,160,30
53,194,14
90,142,45
72,165,26
86,154,36
53,173,18
88,149,40
60,192,16
55,176,18
88,167,32
82,161,32
46,158,18
100,150,44
81,190,22
60,167,22
84,146,39
84,184,25
57,184,17
97,199,24
86,165,32
69,157,28
92,174,30
61,155,25
44,158,18
86,175,28
99,161,38
63,154,27
73,184,22
48,157,19
58,199,15
82,143,40
90,179,28
56,198,14
84,171,29
86,147,40
84,197,22
89,193,24
57,142,28
79,177,25
86,185,25
54,165,20
57,167,20
51,187,15
60,178,19
71,179,22
77,176,25
42,192,11
88,179,27
100,160,39
87,158,35
64,152,28
65,190,18
56,191,15
80,144,39
66,196,17
80,199,20
77,161,30
55,179,17
69,145,33
57,186,16
56,188,16
99,155,41
72,174,24
51,149,23
46,186,13
95,198,24
68,188,19
67,143,33
40,180,12
48,198,12
90,195,24
52,142,26
52,198,13
95,149,43
44,144,21
74,171,25
89,153,38
91,198,23
98,160,38
60,141,30
75,187,21
80,176,26
70,155,29
41,180,13
99,142,49
85,141,43
42,199,11
46,174,15
86,169,30
75,183,22
55,152,24
94,199,24
68,189,19
78,164,29
82,193,22
65,196,17
75,179,23
90,170,31
98,174,32
74,192,20
57,188,16
70,161,27
43,146,20
78,171,27
88,155,37
87,185,25
60,143,29
40,181,12
79,173,26
79,159,31
78,199,20
73,185,21
74,157,30
40,146,19
64,185,19
68,174,22
46,195,12
56,160,22
94,140,48
58,169,20
100,167,36
62,185,18
78,164,29
76,144,37
65,167,23
80,152,35
95,152,41
53,181,16
93,145,44
86,173,29
57,161,22
65,155,27
43,186,12
85,159,34
57,146,27
96,148,44
53,183,16
83,159,33
95,197,24
97,200,24
79,169,28
97,161,37
67,190,19
44,154,19
92,161,35
41,155,17
58,154,24
57,162,22
96,159,38
44,179,14
79,184,23
41,149,18
40,157,16
58,193,16
80,191,22
54,153,23
65,144,31
54,149,24
62,180,19
40,190,11
75,142,37
89,182,27
69,178,22
86,177,27
72,197,19
46,156,19
72,159,28
70,150,31
47,196,12
98,190,27
77,177,25
72,159,28
76,162,29
82,180,25
51,153,22
78,190,22
59,155,25
60,156,25
46,193,12
98,172,33
76,182,23
67,198,17
74,197,19
50,165,18
84,195,22
46,140,23
69,182,21
97,198,25
92,187,26
85,170,29
41,144,20
76,151,33
60,178,19
65,179,20
71,193,19
75,181,23
67,188,19
95,175,31
77,183,23
54,166,20
79,156,32
52,199,13
45,154,19
100,158,40
96,174,32
100,178,32
89,166,32
66,155,27
49,146,23
78,187,22
87,180,27
92,195,24
44,179,14
80,158,32
62,196,16
43,199,11
41,174,14
56,162,21
77,168,27
48,191,13
76,142,38
61,175,20
64,153,27
60,193,16
94,164,35
55,193,15
86,182,26
53,149,24
81,162,31
55,173,18
90,197,23
62,192,17
73,195,19
54,164,20
70,146,33
45,165,17
48,147,22
56,170,19
52,194,14
82,149,37
56,148,26
88,152,38
47,140,24
70,142,35
64,190,18
77,173,26
78,179,24
75,167,27
99,197,26
49,153,21
85,146,40
56,141,28
87,198,22
83,184,25
80,177,26
100,177,32
80,187,23
56,186,16
86,193,23
41,148,19
47,199,12
71,183,21
87,144,42
95,187,27
46,185,13
100,185,29
59,145,28
81,175,26
51,174,17
52,166,19
46,177,15
51,179,16
54,152,23
89,167,32
42,157,17
99,180,31
99,148,45
59,143,29
61,170,21
75,179,23
41,155,17
50,154,21
66,177,21
77,149,35
63,171,22
59,164,22
59,148,27
98,195,26
66,176,21
66,191,18
60,186,17
53,190,15
54,156,22
67,174,22
45,194,12
40,177,13
61,195,16
61,169,21
86,191,24
63,191,17
91,149,41
81,169,28
98,167,35
94,188,27
84,161,32
41,194,11
53,166,19
52,142,26
92,141,46
56,173,19
80,199,20
59,164,22
95,181,29
98,154,41
83,148,38
42,188,12
95,155,40
40,188,11
74,179,23
74,184,22
65,143,32
66,151,29
83,141,42
93,183,28
84,173,28
58,173,19
58,156,24
58,146,27
90,161,35
79,197,20
79,197,20
91,144,44
49,145,23
46,140,23
73,189,20
52,154,22
85,163,32
99,192,27
56,157,23
71,193,19
46,158,18
56,176,18
68,186,20
89,153,38
43,189,12
100,173,33
55,172,19
58,192,16
45,143,22
84,169,29
83,152,36
71,176,23
52,190,14
78,183,23
46,149,21
51,149,23
81,171,28
99,188,28
75,168,27
48,198,12
54,160,21
82,199,21
67,171,23
41,149,18
48,160,19
74,164,28
49,173,16
45,140,23
90,170,31
88,147,41
68,165,25
52,152,23
77,164,29
70,155,29
64,175,21
55,143,27
59,176,19
95,187,27
88,193,24
63,180,19
41,192,11
67,189,19
73,177,23
65,159,26
52,149,23
47,146,22
84,165,31
83,163,31
73,167,26
69,143,34
94,196,24
41,143,20
88,163,33
48,161,19
89,168,32
66,195,17
46,196,12
62,195,16
70,169,25
71,165,26
43,151,19
46,188,13
63,153,27
61,185,18
93,185,27
73,183,22
50,177,16
79,153,34
100,199,25
58,177,19
85,190,24
74,175,24
44,168,16
52,144,25
52,181,16
52,144,25
40,191,11
65,188,18
79,173,26
92,185,27
84,174,28
65,167,23
64,192,17
52,185,15
58,188,16
97,157,39
72,165,26
82,189,23
81,174,27
45,173,15
82,169,29
80,187,23
94,174,31
88,186,25
52,143,25
83,193,22
86,148,39
69,177,22
50,172,17
95,180,29
52,142,26
81,155,34
84,190,23
45,173,15
100,177,32
50,200,13
49,143,24
48,177,15
47,169,16
91,153,39
72,161,28
88,168,31
49,193,13
81,166,29
54,177,17
53,180,16
43,186,12
87,143,43
65,168,23
95,141,48
90,187,26
67,187,19
65,189,18
93,193,25
76,160,30
77,143,38
88,162,34
59,161,23
41,164,15
40,179,12
50,184,15
95,192,26
70,197,18
66,196,17
67,155,28
76,141,38
81,177,26
41,144,20
88,146,41
69,151,30
55,163,21
50,169,18
85,141,43
65,152,28
51,150,23
91,183,27
58,160,23
88,188,25
53,153,23
89,164,33
43,166,16
82,156,34
77,142,38
79,174,26
80,180,25
70,158,28
79,183,24
51,159,20
78,183,23
64,184,19
53,185,15
72,173,24
67,171,23
40,163,15
73,146,34
82,161,32
64,155,27
79,200,20
98,178,31
85,189,24
93,173,31
43,198,11
92,142,46
53,140,27
82,164,30
68,197,18
56,172,19
79,169,28
40,146,19
93,152,40
58,163,22
70,161,27
68,189,19
49,181,15
45,165,17
46,185,13
56,145,27
68,184,20
98,171,34
70,166,25
93,176,30
86,166,31
74,181,23
83,167,30
81,195,21
64,176,21
61,165,22
80,156,33
65,189,18
43,176,14
87,191,24
76,149,34
72,188,20
56,199,14
53,181,16
90,191,25
65,164,24
70,192,19
95,187,27
40,166,15
46,192,12
78,183,23
71,199,18
62,182,19
65,140,33
81,155,34
72,190,20
57,176,18
94,147,44
75,142,37
58,194,15
56,174,18
47,154,20
40,163,15
51,192,14
82,141,41
44,188,12
73,158,29
40,179,12
95,168,34
51,189,14
46,177,15
65,185,19
94,165,35
57,144,27
52,185,15
49,196,13
57,164,21
44,188,12
83,158,33
47,148,21
71,157,29
59,191,16
87,140,44
99,164,37
62,194,16
40,145,19
65,165,24
88,156,36
63,148,29
89,141,45
47,189,13
73,181,22
98,192,27
55,167,20
84,148,38
73,144,35
51,140,26
92,164,34
58,173,19
89,157,36
64,162,24
70,144,34
97,154,41
81,147,37
71,165,26
88,177,28
67,184,20
69,149,31
40,148,18
53,183,16
75,152,32
63,180,19
73,154,31
59,185,17
92,195,24
48,192,13
61,174,20
46,147,21
100,163,38
86,155,36
64,147,30
44,140,22
93,180,29
88,179,27
79,170,27
99,193,27
81,146,38
97,199,24
80,181,24
99,169,35
64,180,20
82,167,29
45,169,16
73,164,27
47,140,24
68,148,31
41,177,13
67,174,22
68,167,24
43,199,11
93,169,33
66,177,21
71,140,36
55,142,27
53,172,18
85,150,38
78,176,25
69,187,20
70,147,32
72,185,21
90,188,25
88,191,24
85,200,21
75,153,32
60,196,16
63,179,20
76,168,27
44,145,21
79,157,32
64,169,22
51,153,22
81,154,34
57,165,21
97,157,39
44,178,14
78,166,28
92,174,30
99,145,47
62,150,28
60,142,30
83,152,36
52,158,21
51,191,14
90,167,32
61,195,16
86,162,33
57,187,16
49,173,16
98,157,40
45,150,20
75,155,31
85,194,23
48,167,17
81,157,33
82,173,27
48,173,16
92,178,29
48,144,23
77,184,23
80,184,24
80,183,24
42,145,20
63,187,18
84,158,34
98,167,35
74,142,37
56,156,23
96,188,27
78,199,20
69,198,18
55,163,21
87,167,31
78,144,38
61,140,31
92,168,33
98,160,38
52,181,16
82,164,30
67,160,26
86,178,27
63,147,29
45,158,18
70,153,30
66,156,27
57,149,26
100,180,31
58,163,22
50,178,16
89,181,27
40,178,13
53,169,19
74,155,31
57,199,14
60,166,22
74,146,35
45,176,15
54,169,19
47,186,14
97,195,26
49,187,14
46,146,22
77,179,24
52,191,14
48,142,24
51,177,16
46,151,20
81,145,39
99,172,33
89,178,28
79,183,24
93,151,41
92,148,42
49,148,22
40,191,11
100,200,25
91,176,29
68,198,17
91,194,24
99,154,42
74,144,36
78,163,29
50,167,18
74,166,27
66,170,23
73,183,22
87,189,24
67,190,19
91,151,40
42,171,14
61,178,19
87,195,23
53,157,22
70,195,18
49,174,16
46,199,12
45,188,13
60,196,16
66,169,23
47,148,21
80,162,30
59,179,18
78,163,29
100,169,35
92,183,27
67,187,19
42,186,12
78,152,34
51,169,18
59,174,19
96,164,36
77,174,25
83,148,38
52,185,15
45,178,14
77,176,25
94,140,48
50,174,17
62,183,19
58,153,25
87,186,25
59,182,18
81,140,41
41,146,19
45,195,12
49,146,23
93,197,24
64,171,22
93,179,29
82,180,25
62,144,30
99,147,46
97,166,35
85,157,34
100,199,25
53,177,17
52,142,26
93,149,42
42,178,13
59,176,19
93,141,47
43,164,16
46,167,16
70,181,21
79,195,21
62,185,18
44,147,20
92,174,30
49,152,21
92,146,43
61,200,15
44,150,20
56,172,19
41,146,19
79,192,21
80,176,26
45,173,15
54,141,27
70,176,23
40,147,19
43,199,11
51,172,17
70,144,34
42,151,18
88,194,23
71,149,32
67,199,17
79,171,27
61,150,27
68,199,17
57,160,22
46,148,21
92,194,24
85,181,26
86,152,37
59,164,22
98,176,32
57,200,14
56,175,18
45,175,15
52,181,16
80,158,32
96,188,27
82,174,27
72,149,32
59,180,18
98,146,46
82,182,25
66,145,31
50,197,13
97,174,32
40,147,19
96,151,42
78,181,24
56,140,29
100,171,34
59,157,24
96,172,32
86,168,30
62,182,19
81,184,24
56,188,16
58,167,21
86,183,26
95,167,34
63,179,20
60,193,16
84,177,27
66,178,21
67,200,17
79,153,34
63,173,21
49,160,19
71,194,19
53,171,18
91,171,31
80,172,27
88,156,36
89,183,27
91,198,23
84,146,39
54,178,17
87,186,25
47,191,13
67,151,29
53,147,25
79,158,32
74,192,20
75,158,30
49,148,22
50,140,26
97,175,32
47,167,17
71,200,18
61,160,24
51,186,15
83,155,35
88,194,23
56,160,22
52,173,17
77,144,37
83,160,32
57,189,16
80,162,30
43,185,13
89,140,45
98,170,34
94,142,47
55,154,23
79,186,23
42,144,20
91,162,35
52,152,23
65,186,19
81,162,31
91,172,31
54,153,23
45,156,18
85,142,42
51,193,14
61,149,27
50,171,17
52,140,27
95,149,43
76,183,23
89,146,42
72,144,35
64,145,30
59,171,20
57,194,15
41,161,16
82,144,40
72,178,23
44,170,15
94,150,42
54,186,16
86,145,41
60,199,15
63,161,24
79,171,27
84,194,22
79,174,26
53,184,16
85,199,21
90,177,29
40,171,14
71,177,23
80,150,36
57,183,17
53,198,14
68,188,19
51,182,15
44,170,15
90,171,31
60,178,19
73,182,22
58,176,19
99,170,34
79,168,28
53,196,14
46,151,20
93,200,23
49,180,15
88,154,37
94,181,29
95,171,32
65,193,17
94,189,26
90,180,28
73,150,32
59,165,22
97,165,36
63,156,26
40,157,16
69,171,24
57,196,15
71,197,18
96,153,41
78,179,24
46,189,13
71,199,18
62,163,23
56,145,27
53,199,13
69,163,26
59,192,16
69,165,25
66,145,31
58,166,21
51,141,26
84,151,37
60,176,19
69,188,20
69,177,22
56,189,16
78,196,20
71,151,31
76,167,27
91,164,34
52,177,17
50,153,21
74,170,26
60,198,15
99,182,30
77,144,37
86,156,35
44,185,13
66,154,28
73,184,22
88,167,32
60,140,31
96,157,39
58,171,20
76,196,20
86,186,25
69,174,23
62,158,25
42,176,14
59,189,17
51,144,25
97,142,48
92,141,46
71,141,36
85,178,27
66,176,21
93,167,33
84,190,23
63,151,28
66,193,18
70,164,26
77,194,20
79,189,22
83,188,23
78,161,30
67,168,24
72,200,18
94,163,35
77,176,25
70,188,20
68,196,18
84,172,28
51,145,24
43,193,12
86,174,28
40,185,12
85,143,42
46,196,12
66,150,29
92,177,29
71,165,26
62,140,32
97,179,30
98,142,49
62,192,17
88,174,29
74,192,20
100,174,33
68,167,24
73,159,29
83,181,25
67,178,21
90,147,42
81,181,25
64,193,17
61,147,28
63,190,17
60,161,23
94,172,32
61,184,18
100,180,31
83,176,27
76,189,21
61,157,25
45,170,16
40,166,15
49,147,23
48,162,18
69,184,20
90,142,45
97,170,34
41,164,15
43,154,18
60,162,23
53,192,14
71,165,26
95,166,34
70,190,19
62,194,16
100,186,29
67,158,27
44,176,14
43,140,22
91,186,26
93,147,43
55,165,20
60,178,19
92,175,30
45,144,22
60,166,22
92,197,24
42,159,17
90,170,31
59,183,18
97,170,34
42,191,12
48,143,23
66,173,22
46,169,16
98,147,45
48,178,15
85,161,33
90,194,24
91,198,23
61,196,16
44,157,18
73,178,23
75,177,24
94,143,46
59,153,25
59,172,20
59,154,25
64,191,18
65,177,21
46,162,18
52,150,23
75,174,25
62,185,18
89,189,25
43,144,21
92,153,39
84,184,25
56,188,16
67,177,21
68,185,20
87,177,28
80,156,33
59,151,26
100,169,35
71,153,30
68,162,26
72,167,26
54,164,20
41,171,14
75,150,33
71,174,23
90,152,39
75,200,19
73,162,28
98,194,26
98,153,42
84,167,30
60,169,21
81,151,36
68,149,31
60,157,24
99,182,30
78,199,20
45,175,15
80,142,40
55,173,18
71,164,26
68,199,17
40,186,12
70,178,22
78,169,27
59,196,15
49,163,18
77,140,39
45,166,16
96,168,34
90,184,27
73,145,35
68,183,20
40,157,16
54,188,15
94,142,47
90,179,28
89,185,26
46,174,15
40,192,11
83,182,25
78,160,30
79,158,32
52,154,22
93,184,27
47,197,12
78,164,29
64,149,29
67,176,22
74,168,26
55,144,27
92,144,44
64,151,28
40,145,19
46,186,13
49,185,14
100,198,26
74,176,24
52,190,14
59,167,21
69,186,20
79,170,27
44,175,14
78,164,29
82,183,24
94,164,35
51,140,26
92,173,31
86,195,23
67,159,27
43,157,17
61,187,17
53,198,14
66,153,28
88,168,31
79,166,29
96,200,24
67,162,26
78,147,36
72,160,28
89,156,37
56,183,17
80,197,21
75,146,35
51,178,16
82,163,31
68,154,29
100,159,40
45,165,17
99,174,33
66,164,25
65,195,17
88,151,39
46,151,20
96,191,26
67,165,25
86,174,28
63,164,23
88,180,27
45,193,12
92,167,33
