0.37771434082944566
0.2293268984740443
0.3329998296013692
0.23352599565040133
0.3055609283591034
0.2506263698496327
0.35627510161475384
0.2153212371674461
0.20547862304712583
0.3680219538738284
0.33928770476854453
0.3162114947657353
0.42110157813372107
0.22841633654145688
0.21182919834107528
0.3432765507932931
0.08687848646234775
0.3676160525107288
0.20354901847179196
0.27462772941262026
0.26150040401371033
0.3121907480185637
0.10496892817418135
0.33729485038710116
0.32135197606257326
0.19146946060916525
0.2928653553447389
0.40281459683071863
0.345181939861369
0.20435770119011687
0.30368009803200346
0.21205903503732149
0.19366498571811774
0.28186343551202764
0.35036589180397915
0.37250603323959963
0.2772047232319359
0.17635412642070447
0.29051011657499193
0.2874779945206638
0.24766266632445377
0.2657499555536469
0.3215077101729633
0.10156685055463466
0.2048764445404676
0.3681794332526901
0.251013676642976
0.2095347724458757
0.26451301549520556
0.21176678945482896
0.27836253377074127
0.1506964221586875
0.3035254011084991
0.10903856079761076
0.20135410764365502
0.332530967289824
0.26496819212315037
0.31630116966242683
0.2168089540109711
0.11693109811783342
0.18147510111458254
0.17343121396145633
0.24650367601049805
0.3927890980044507
0.32404854261499205
0.18893096541043297
0.22166203307781218
0.3675495401034502
0.1934390334113495
0.3004753640501353
0.22547781919607957
0.3030613724176231
0.3909372736044687
0.29630243096527464
0.2494650756610146
0.13413616890162905
0.28637984698239216
0.2693786357685505
0.19710077387547975
0.12869932424776065
0.1487377057441086
0.2684431401681078
0.20643413025033885
0.2986639612169646
0.25905652443227245
0.2173333085088789
0.3871675236390193
0.34278216419362595
0.25713350522070566
0.24224296953479507
0.37059094494854505
0.341998706614001
0.32603356050483057
0.18942179392633218
0.1955563273735047
0.10156685055463466
0.1405795538352379
0.3486151254944855
0.14257734714034054
0.24658986471290345
0.19796649650023113
0.3652965038438185
0.1027418607108238
0.2250976811973705
0.29222608777124115
0.21993695897490617
0.15790603176742346
0.15677929605366991
0.29998830721558944
0.285128893292666
0.11453332993970766
0.2968540147961487
0.19415797924213773
0.31210122870805146
0.3608172605032566
0.16155393574214028
0.2406401428481405
0.27447516090418156
0.29467202726682706
0.13906986681629196
0.18535914174624635
0.15796571594981734
0.27325508272907906
0.336109321128122
0.17938693147823004
0.13488587829374332
0.37667733517225843
0.2678995830352805
0.24254212096276462
0.307067752078783
0.19067039111686057
0.17744473056257393
0.37137864823744504
0.3001427744292168
0.25000240653676153
0.34215538493639586
0.2229254656026748
0.3398478314106824
0.10143824454595651
0.30038630108056474
0.2269147048406961
0.276177199918469
0.11082178319974212
0.23882639971811437
0.2410247724668645
0.24134589576973176
0.2047312116583475
0.2926226715252058
0.24361190754024287
0.15502293362966868
0.09708768008715263
0.25989974715080166
0.27635303057342253
0.2913027188012366
0.15859898926279015
0.3943920271219318
0.2133125504169071
0.26005104026444026
0.285612498834222
0.2788212227695833
0.32063929681171577
0.30312686959832047
0.12971128758169548
0.2673561995162447
0.285128893292666
0.12409836544277886
0.31345665493677655
0.11679958411009139
0.16091851817321967
0.11913050470651443
0.26098185234016913
0.1462369038206115
0.23180681742032982
0.3039240034475461
0.1807448183338516
0.4406468871964113
0.32998328570264324
0.33928770476854453
0.1804609090758218
0.2580399408925623
0.31596638939428157
0.20533331510652453
0.2153212371674461
0.31494429198558305
0.2680515939452287
0.24955143988241857
0.36601711893070876
0.281951648073843
0.16623414388170277
0.2146512973395327
0.2421793198800386
0.3748278482888907
0.2411105976014396
0.28076841740877745
0.23136156193035418
0.21168309366275195
0.14147132081631797
0.34103454245196385
0.2747155572709199
0.31630116966242683
0.24049075637727046
0.3884544038522736
0.2688347797096655
0.38091711769757364
0.2151121535300281
0.16545564972802296
0.10864851707222722
0.3977559923852202
0.3162114947657353
0.270314647057466
0.1484636254253734
0.2264493232410676
0.15264086598989235
0.1465879236396158
0.3877320537048379
0.19124400526949947
0.28466873034264006
0.2820165954416164
0.16141483700430237
0.11393517748119975
0.341347833125516
0.2307461948581041
0.1984204268853319
0.11886669236690284
0.2569824834915123
0.25292916846536284
0.28631478014446343
0.4406468871964113
0.1216763361582629
0.33832423174233817
0.3651390911010338
0.19504201561661083
0.412840053187678
0.11693109811783342
0.24643987038965176
0.2975600301887984
0.1970800174765882
0.25092720874645125
0.12093982677807247
0.3681794332526901
0.17457904215929143
0.22180933506713307
0.30494172072898973
0.2575224587920534
0.37611334196031176
0.26998726419389985
0.16879375259209461
0.29654553568105235
0.2635802084111819
0.16623414388170277
0.1698558171561374
0.26744363202298727
0.15159931638808943
0.2016437204266951
0.11154774477527385
0.09417979859009806
0.34025143367657273
0.22727361160880344
0.25413466152407593
0.3675495401034502
0.21435841602113115
0.19269997858064492
0.19489806944271282
0.30777683726030136
0.2244440985353584
0.35706100869804647
0.31596638939428157
0.17995421265829226
0.3188134896534608
0.22008405950084187
0.18572592924983777
0.16623414388170277
0.22541482116467115
0.1673730337859678
0.2578888320006433
0.12544547990438926
0.37059094494854505
0.332062172959503
0.33682542636152635
0.30737759982331836
0.17570834511333822
0.33380553199730223
0.2395947737017482
0.116462311345774
0.36498168269649833
0.2090138862477754
0.24680369677680813
0.23284633110364017
0.24978813416620116
0.18255136127926608
0.25346774425700846
0.2717727402388087
0.23384528545334282
0.1383161056453842
0.3260995273368681
0.2768991829445281
0.23390862077300167
0.21502819365114145
0.2549111561164008
0.1699358543897318
0.1788807923935266
0.17823329819777678
0.2685306391836929
0.17995421265829226
0.3055609283591034
0.19495970695669684
0.27114050343278673
0.19081376483534007
0.29145658501162797
0.3345211727609888
0.1506183107476382
0.2070160364991056
0.32395860862585524
0.2296232671440528
0.33651251265634985
0.4247118666436218
0.38035288610138107
0.21502819365114145
0.3358625993903732
0.2880272937131467
0.20282389302910908
0.12188368023926266
0.4166101329672127
0.31661209744577457
0.2847337628892058
0.2602023476823184
0.42935790681806674
0.17809169585351847
0.34677447533654027
0.2920721643718266
0.2637546661769915
0.19081376483534007
0.29568566607737523
0.21020179977681241
0.3100603875427814
0.13920532666485663
0.21086921176716533
0.2587314396449284
0.23150996369935561
0.1874802835533388
0.18696997354365952
0.15187441782070132
0.22189380277291704
0.11175202571007947
0.14333516551299286
0.38509189992174786
0.16665372903436804
0.4041020690633975
0.3006952968024794
0.3050965073677534
0.09347279070379777
0.19716250608009067
0.3263455104506906
0.29583984072660074
0.32603356050483057
0.3371383686029571
0.2457315487771281
0.22075700377772467
0.4101988714949685
0.2329315903972895
0.25767353069708376
0.2430132302063801
0.2074737951622726
0.13700427019875427
0.39062163317591336
0.1747201315341511
0.3525884687653261
0.28910292678292315
0.31463354826298484
0.3106151796624067
0.22233583914337818
0.43007948488570613
0.3022645286002017
0.12788007213397568
0.20392225700024336
0.32119625058886936
0.2493372378259524
0.3091062050340321
0.18595013540697758
0.1984204268853319
0.33396186833683716
0.3652965038438185
0.34949042389314133
0.09173645023705768
0.23935978192106788
0.31525507271769493
0.21168309366275195
0.423267882972195
0.14860065423738722
0.34549554645060465
0.34868143834063714
0.166294300193491
0.20805622277552727
0.24361190754024287
0.24224296953479507
0.28030926646272336
0.20464809174411824
0.22759131422192613
0.14860065423738722
0.21928600182749958
0.16765308131423884
0.13488587829374332
0.2419438814604421
0.3997660689290329
0.14908981365666618
0.33904076644554215
0.1703571170638467
0.3087961448710639
0.15271918608057267
0.39398515154216684
0.17264661390931024
0.2570466676701687
0.33514668815790394
0.20709935609074104
0.1655157609964657
0.2212830564249768
0.29811192722173097
0.13598261758751962
0.21494425100634085
0.1641001880695615
0.31803562199360313
0.22750642871189153
0.35931091903374324
0.3561843364802034
0.21488169897298592
0.316677890896215
0.2885767422885216
0.1632635589479462
0.3652965038438185
0.21391922989424828
0.34278216419362595
0.2134588554410929
0.3516462322646625
0.2915218016567376
0.33888421110621814
0.20930545253772603
0.3276836741960508
0.20075420209211026
0.22429649328984247
0.2636674295122544
0.20127125548624414
0.2833538642927389
0.2131662635846785
0.2667484799922393
0.29780327833712006
0.10378992303663392
0.332530967289824
0.3006298606375708
0.264600298532509
0.24880013328811723
0.1344054196936526
0.1655157609964657
0.19481577056364074
0.14319900881144554
0.2880272937131467
0.3561843364802034
0.3922244158024899
0.33063206952755686
0.19635911574171638
0.10333015849120253
0.34693133397898823
0.3091956110298727
0.19204351150351295
0.2979575973495252
0.1659545283552667
0.42486957617921184
0.23603574397604277
0.2984206194886301
0.19058845677746528
0.17952872075264248
0.14009554941475455
0.2462675234638977
0.15931171759588225
0.2915218016567376
0.24987453749085153
0.20415046876909426
0.3231793861893688
0.24504591648737006
0.42935790681806674
0.0820590745180092
0.1597280897126745
0.2928653553447389
0.355398562859489
0.2203998750172934
0.35946817798364616
0.20170567489685598
0.1921255713159099
0.35946817798364616
0.23695155914808264
0.26150040401371033
0.17298876143873354
0.15083381473676571
0.23573796900235644
0.12483809155377801
0.1670133069543147
0.31494429198558305
0.310770312694545
0.21258129839982975
0.17156159662748582
0.24993846335394065
0.32817591752493214
0.3623483986645616
0.2193487336848532
0.32364689439028926
0.24757640262028968
0.24239253733578825
0.16963544210476367
0.23876287574247557
0.25000240653676153
0.12228108197808496
0.3359528912358304
0.2800681252500541
0.30540611119722105
0.13769827046537753
0.3721908982288181
0.2073071017411472
0.1733508457595363
0.20531225619670068
0.22459172108795833
0.3106151796624067
0.2540705773522306
0.4067436333829101
0.37667733517225843
0.2410247724668645
0.3286441662899279
0.1834864123755322
0.28879554441549404
0.183710105203444
0.20149890448670482
0.21057725898239776
0.25131458971913745
0.21072322617840722
0.24498215064730455
0.29442912967967827
0.16163315366936448
0.12349209729418864
0.310770312694545
0.24817693250716288
0.312256451397079
0.2934160726249213
0.3098158629225276
0.11500081741014145
0.20976414639937646
0.2628866494688459
0.10568862110240551
0.10404806999116512
0.12262115857080091
0.27201277362746956
0.33078826116389326
0.2535958650494946
0.27231750757951545
0.08802640633172154
0.28177523784214453
0.32380274730779113
0.21205903503732149
0.1686535459083629
0.24126004683914803
0.15146179943632065
0.293966932673312
0.22780239305668482
0.3904638156359854
0.21107760393224317
0.18797043620550502
0.2580399408925623
0.23066108879334002
0.2923147815147259
0.2411105976014396
0.19613258120029609
0.14762321787465627
0.2047312116583475
0.3848429929041899
0.2974057371532757
0.23000476935573677
0.2421793198800386
0.24491840218190442
0.38612967412503085
0.26961833776066035
0.321040533766625
0.15348640768690514
0.20568608456890913
0.2293268984740443
0.2570466676701687
0.2980229746235804
0.22023117768511358
0.4406468871964113
0.351712582757841
0.21643149573552023
0.19693579823101048
0.13584770884317077
0.30337071452202435
0.21905472728909758
0.37426397543284373
0.23240072525794297
0.15460879667614247
0.31321179912108377
0.28348385176337065
0.2875431007759296
0.23844237941067437
0.35339813892536553
0.2635802084111819
0.2562917377948605
0.310770312694545
0.39021482433270804
0.24254212096276462
0.14631455146186334
0.10581804694899688
0.29630243096527464
0.2112448895840341
0.11500081741014145
0.23201853484375934
0.09534134633421498
0.166933560272976
0.30180074212377983
0.37611334196031176
0.24611755894111753
0.26206468439244324
0.2665965843594982
0.2023061014737214
0.1721440651767372
0.17952872075264248
0.36714366286536704
0.16268685123679816
0.2602023476823184
0.20834754821842472
0.23588684830419915
0.12984512867843656
0.2748034002883024
0.3267475175859136
0.20156084932982654
0.30407872482928555
0.2000308871328188
0.2669878038668334
0.29161046268793733
0.2408753466089486
0.31296697294133624
0.2048764445404676
0.1441711214049074
0.11154774477527385
0.2780568044237559
0.3509275175226758
0.10700065906971501
0.20583143960403283
0.20201631721103586
0.19183848638976086
0.19204351150351295
0.23233745099292458
0.2862914301076024
0.21116123807843112
0.3522743674303114
0.1501282463435759
0.2685951977480967
0.25146506885981923
0.4203793949385872
0.2853706777328012
0.3845274707696733
0.22862754428971288
0.15782718006124252
0.19607089133961286
0.3759557069004109
0.13502062175660146
0.1539784568421969
0.3478062987486047
0.24004269293338798
0.11693109811783342
0.41180184839535017
0.34087790719136746
0.3115461223156252
0.0989669143969325
0.2248870180675595
0.29749467294860066
0.10189667649353773
0.3142332421168339
0.25002487363934034
0.3085517479905936
0.26744363202298727
0.1777885415044761
0.11115628080610318
0.332062172959503
0.16715326591531887
0.13947631609187727
0.3012479529313149
0.2848221059190711
0.2569824834915123
0.28186343551202764
0.3158109545020672
0.24710377934989758
0.1606405404933393
0.18031898537546054
0.2506903367781993
0.24423314267338947
0.3084861240608646
0.2678350456012658
0.18356771935446747
0.15600910566085457
0.22526710397583816
0.20976414639937646
0.25023916726468076
0.21383536632062927
0.3266574930124071
0.20458599762930452
0.12504637020265308
0.1813330330129982
0.26236767661015414
0.26581442897677643
0.37194231988425097
0.18261238494620435
0.2550619821041197
0.11380421841113275
0.2882460447570704
0.19132599745741508
0.1952683176574761
0.21107760393224317
0.24185800287527648
0.09767085914274742
0.38204566955238994
0.3226220545570183
0.18291711440161307
0.1848702095934659
0.2951996816272626
0.1506964221586875
0.20635086501160704
0.31692306159642025
0.28910292678292315
0.285128893292666
0.21502819365114145
0.34374675147795997
0.32135197606257326
0.1027418607108238
0.34836760130033395
0.25998676716225644
0.18819515152942157
0.332062172959503
0.252153667797943
0.19481577056364074
0.1382393141462892
0.2308094163369524
0.13256278129614074
0.2592719993792779
0.27829769033626184
0.3845274707696733
0.1377567608060849
0.35139853954376987
0.2537465672600626
0.2427139861240768
0.20458599762930452
0.12713728383801437
0.2512281080352007
0.2858309999837031
0.10772254108265811
0.18631715205665045
0.1747201315341511
0.2934160726249213
0.33801118713419487
0.35802862083126563
0.3453387400063739
0.22682986887521983
0.1915514807106149
0.23550364665870016
0.21139093927307584
0.2623448856298346
0.28162209541188277
0.30328154196330503
0.18356771935446747
0.4203793949385872
0.10404806999116512
0.3665803664984827
0.33539335870828624
0.15124612779233637
0.24474624963159664
0.1903837033805088
0.22023117768511358
0.17958958274476322
0.2033209454714361
0.1836287879203401
0.37354254753126104
0.16801306484489098
0.18862431330300222
0.14092808405611779
0.10890852139921359
0.22727361160880344
0.3144781903168401
0.1409867716544395
0.21943302247307395
0.25200312168518146
0.32119625058886936
0.2838787277950041
0.16899428477828848
0.08732637544532951
0.25590309261264077
0.41195968754195855
0.37947329548866404
0.13659908595157777
0.1639006746451387
0.36770700728374184
0.23844237941067437
0.1597280897126745
0.23308016681738775
0.17952872075264248
0.08250336466758901
0.2963913126043878
0.18009608462205662
0.15958927699012038
0.1738540387195423
0.19687406765982218
0.1992045265118222
0.1974510221860345
0.27565437885891586
0.29780327833712006
0.1599459805271234
0.40281459683071863
0.13748635661943842
0.16354234830462766
0.3199267927063516
0.20216119981886693
0.29051011657499193
0.25689565250721336
0.08687848646234775
0.23844237941067437
0.31101493737646013
0.325631646682221
0.21695568204956983
0.1989155462872929
0.26150040401371033
0.2720774362865721
0.3115461223156252
0.35396012426765966
0.1435487014879313
0.18283586691878562
0.09955180534031871
0.18674552847420045
0.21928600182749958
0.08193438053789537
0.20968061091699797
0.23503514734188602
0.26167461815457194
0.27255761872872386
0.3577806088337684
0.3364222025099777
0.28403204488960576
0.2693786357685505
0.14950127550484293
0.12262115857080091
0.17987324373765434
0.25146506885981923
0.303216038286945
0.3318157415208206
0.12067535479639124
0.1383161056453842
0.28949891761820934
0.26158750326444147
0.2659891392203898
0.3292686089435788
0.22812023750657506
0.27735751254164864
0.2982008940949553
0.24558163801386557
0.31630116966242683
0.18212475641572334
0.302972207608455
0.17357213445514053
0.3234910498881721
0.13461646184507037
0.3056501923667906
0.2920069370499859
0.24185800287527648
0.1881134398926716
0.35931091903374324
0.2174800989144251
0.18283586691878562
0.24826322449077354
0.3150339178780416
0.3043881984319795
0.19446634849276
0.12080757866683256
0.38741647061467077
0.19198201895208955
0.18907409959642052
0.2493147908453155
0.07897358552460143
0.3365786539694311
0.2734075466907061
0.28046230430552666
0.15271918608057267
0.32998328570264324
0.162189812398992
0.1501282463435759
0.2178578931573073
0.37379117521959526
0.19087520415041836
0.1541758500798749
0.15909399041358352
0.39599504478127234
0.3227778540822621
0.14009554941475455
0.19321313840791476
0.33054192869925214
0.10937216826512097
0.16199069852550074
0.3259435589203019
0.3158109545020672
0.377556678719537
0.20075420209211026
0.2299197033608119
0.26050500537850285
0.1120132006556096
0.2636674295122544
0.2667484799922393
0.17708105160236354
0.24880013328811723
0.2280353107439883
0.2513785802946785
0.2384645193847026
0.1749218609743034
0.300077347887886
0.2306829909071061
0.32911248643561053
0.2857426125344583
0.3814813790988262
0.26807453007744597
0.1798123613523469
0.20464809174411824
0.3103049426065537
0.2789741443754007
0.28030926646272336
0.3263455104506906
0.24826322449077354
0.2250976811973705
0.1753652512612276
0.349961301162256
0.24126004683914803
0.09450579235895029
0.2240642606064216
0.22797221349710295
0.2829590811868913
0.17952872075264248
0.3024191450238709
0.1934390334113495
0.21028537981308393
0.19848222066366972
0.31092545537677185
0.21873927599273357
0.2652945760015808
0.42935790681806674
0.13625250535386368
0.32982712956222526
0.27255761872872386
0.20340395545398426
0.28396703103926035
0.07966391211467716
0.15209025682724187
0.28061535462545584
0.23739863483398682
0.22233583914337818
0.316677890896215
0.12727066963821176
0.18623559827742242
0.23187007414702854
0.3723484639249356
0.2749559929136013
0.35658944890073385
0.3047869442934139
0.20649630429071486
0.14071526995148864
0.21926446199112104
0.2767464319940869
0.22069419841621762
0.2577604194593869
0.23541820378967793
0.29623710053389485
0.3524314152978819
0.20435770119011687
0.15354584271457739
0.3311908279289605
0.2184454105306275
0.29906172850734736
0.21101521573754978
0.20695384228184555
0.41412721574262545
0.2000308871328188
0.23505717956538763
0.2033209454714361
0.2984206194886301
0.23844237941067437
0.3114804333390141
0.33309003888911015
0.29623710053389485
0.20089892258778108
0.1744181000936963
0.25773773760338525
0.2874779945206638
0.23997912692287815
0.230216207028906
0.13461646184507037
0.19409638273392082
0.321106412893318
0.17643477152762888
0.19249483297271808
0.20216119981886693
0.24787663684465044
0.11009659066745392
0.3916597483699962
0.28116274240762484
0.2006922972605003
0.14106385854548686
0.23172163015379554
0.2951343715866095
0.2220411307327862
0.268139065707372
0.338974583853064
0.27046686279497356
0.23995694539441403
0.2132500743740311
0.1832627787773876
0.39527244988638643
0.09637742025486395
0.42631334819751976
0.40803104784648725
0.2236216259054845
0.16829330619737348
0.09909503828662924
0.24286360027280096
0.2348229782281649
0.3668287570999158
0.26429690467983113
0.2047933153168282
0.23595026137256947
0.3746702351356547
0.21800474577815876
0.30109341399487966
0.15873764702820647
0.13611754976022516
0.3185023158417021
0.24742630857898507
0.16177228554848155
0.08617977345621597
0.33443092177877665
0.36178553123235146
0.24725384378249404
0.11274042446195942
0.15642391292725866
0.187623216936884
0.18682713087661917
0.24126004683914803
0.08975234578934277
0.16623414388170277
0.21057725898239776
0.10248421837283483
0.2162848302152114
0.12335938737567032
0.3852496656303288
0.09708768008715263
0.31345665493677655
0.20259596188153728
0.1247051396810589
0.15986692444062944
0.1834253539096875
0.10143824454595651
0.1712803712841292
0.3183467422950176
0.34190825667686775
0.37137864823744504
0.33514668815790394
0.261348976312027
0.15537772909348124
0.19716250608009067
0.3480537882632845
0.2505624202329919
0.4112371360696929
0.27550172889850955
0.1607795183638956
0.16050158457027364
0.39599504478127234
0.1694951070638523
0.34025143367657273
0.10437916225367583
0.2967651203427132
0.21494425100634085
0.27775112585942874
0.24367562418379263
0.20924315096952506
0.1703571170638467
0.3923822470661248
0.3665803664984827
0.19994814641722825
0.3919087581727798
0.16205061492207962
0.29623710053389485
0.33514668815790394
0.11513199886373604
0.29051011657499193
0.3364222025099777
0.26998726419389985
0.20716155978611572
0.1624083246422523
0.2530798029984338
0.2408753466089486
0.13995993810770346
0.21205903503732149
0.3829254606129392
0.2503255914466552
0.20849323881043136
0.2719250816376817
0.29136792855552385
0.1858074343205064
0.20236808620570523
0.25536367828686957
0.3516462322646625
0.20075420209211026
0.24643987038965176
0.2986639612169646
0.23505717956538763
0.1895036221846883
0.21972711687777446
0.15466829243171476
0.20415046876909426
0.3759557069004109
0.21800474577815876
0.26444859464840464
0.34693133397898823
0.21607558280696082
0.23384528545334282
0.28357213011614124
0.27478031092849076
0.1429855740533681
0.2702916590047606
0.09779872853351568
0.22592110094581386
0.13304207465684315
0.33760783520688853
0.23648252908979928
0.18031898537546054
0.1708586926703759
0.19862664322901136
0.13974739844140116
0.2385280262253976
0.09838255528157203
0.29081775003403065
0.29277663357490546
0.33729485038710116
0.3365786539694311
0.20098173810129893
0.2363970233785171
0.1216763361582629
0.19804906894966967
0.2385280262253976
0.1850739222919452
0.22773929602583476
0.26499105881504714
0.18204357893436762
0.24697611888997317
0.2538331990747399
0.33816770593644896
0.4003308648978896
0.1752846991120519
0.23452546415169206
0.31487853822318
0.22075700377772467
0.21888623537755136
0.22630148569595832
0.32777372630955914
0.15937148305361593
0.20724488857143264
0.18068390071672136
0.354588556349382
0.2996794048131811
0.200092761500834
0.14631455146186334
0.27912707859485053
0.10831526982412065
0.2327197475875632
0.263883481567211
0.12067535479639124
0.15502293362966868
0.2601153305733569
0.3007843678337052
0.15327020084003384
0.2526053960366573
0.1747201315341511
0.25146506885981923
0.32476203946844817
0.3564322726562885
0.12984512867843656
0.3218192042446941
0.3190588532186247
0.3609081080387362
0.2945179348072222
0.15390000600037623
0.1541758500798749
0.21168309366275195
0.20098173810129893
0.21258129839982975
0.0820590745180092
0.35634150695046063
0.2909063781585425
0.16318417245575634
0.29826626793950994
0.3479631951256221
0.3623483986645616
0.15201200228502887
0.32855408936863684
0.18899230147594925
0.29317332243597716
0.17879991524476502
0.2448960752522672
0.28396703103926035
0.26390630813946714
0.27960914005340165
0.18797043620550502
0.30140250241923816
0.1989155462872929
0.33063206952755686
0.18472766068488766
0.23505717956538763
0.24856359558048802
0.27611240616396326
0.21703978133652724
0.2530798029984338
0.1626268999458388
0.3041679408709549
0.215258675060658
0.26922651232292294
0.3629777900380142
0.1854406082487695
0.3651390911010338
0.25131458971913745
0.42182372157784054
0.19767784473207395
0.21555177222572663
0.27526121707917395
0.2606791121559203
0.12188368023926266
0.10248421837283483
0.31968135423752997
0.24483231778996062
0.3369818939227426
0.11082178319974212
0.30935065933970063
0.25077678174267926
0.13509705955322793
0.26566261424483717
0.3087961448710639
0.21523727693117534
0.3807594064280826
0.3632260347390044
0.2943403389684308
0.16665372903436804
0.2978686489381699
0.23352599565040133
0.165096696086935
0.2405765427667501
0.37034241864232453
0.17744473056257393
0.42182372157784054
0.3584338794708376
0.12457221184816969
0.1639606955190731
0.31321179912108377
0.1852165218747167
0.281009649547579
0.15474682001185425
0.17995421265829226
0.1541758500798749
0.38886117532503206
0.38933459252744973
0.1877661704363296
0.1747807402652688
0.18385251144675063
0.14236408379046728
0.15923272571505376
0.2408753466089486
0.3848429929041899
0.23859155051068848
0.43544383796429686
0.2357159150804483
0.1747201315341511
0.17795011429546492
0.22864937945707242
0.34462105656580466
0.289741235374926
0.11706263656095883
0.24643987038965176
0.2458176764388218
0.15867791681812082
0.24019203140754786
0.29013735802799345
0.20317591078848385
0.21806743906610226
0.19087520415041836
0.4162945217884897
0.30337071452202435
0.19467185376577
0.17121995187938288
0.37843610294517593
0.27550172889850955
0.36714366286536704
0.20334192959838837
0.1304566415937961
0.24742630857898507
0.11860297738283831
0.11573118362383328
0.24940114808009206
0.24299096667528508
0.2248870180675595
0.19541231274034865
0.2760476294322155
0.3209506988520109
0.33349288161998814
0.32088482561060927
0.24078954529321184
0.2351205581398561
0.16423970234473828
0.2298565347725603
0.215258675060658
0.19541231274034865
0.21197532132683827
0.2005267219290846
0.1641796603233282
0.37683498237601554
0.4316800598996604
0.318101442497414
0.19138745847306116
0.15691766543415075
0.2243594371172356
0.4203793949385872
0.336109321128122
0.20895160352142583
0.24901426693862017
0.14686138707805063
0.42775691621311707
0.08433875442975536
0.35396012426765966
0.14506689070065748
0.18190142868694814
0.3219090663205958
0.13858679163454635
0.3665803664984827
0.20612220597279285
0.2074737951622726
0.4166101329672127
0.26182607264431934
0.24483231778996062
0.20135410764365502
0.16609432532161428
0.18913544562112417
0.3884544038522736
0.33022957305579026
0.24254212096276462
0.2296232671440528
0.23210373797189987
0.24811306192859217
0.23165838220001422
0.12262115857080091
0.23731305777385736
0.20834754821842472
0.31352238063867655
0.21241380001701882
0.3364222025099777
0.09392551708929997
0.195988488470357
0.17234527939669764
0.1899333246054622
0.11294507294412115
0.07602771359147065
0.26877022298585085
0.2727100244156041
0.155654044061315
0.21703978133652724
0.37771434082944566
0.4064279107609764
0.11500081741014145
0.14797483995993532
0.28809241112659867
0.33094446052295634
0.36642292396506104
0.25344517770715236
0.1887674073316532
0.09417979859009806
0.1626268999458388
0.27744549818698605
0.1847887840324255
0.166933560272976
0.29599402643377426
0.2520671358087313
0.35324106167798597
0.2520671358087313
0.3067579443415256
0.2778159569711973
0.28996016271457503
0.23761117420493805
0.3140121723145537
0.30423345649555766
0.37658626653071814
0.23030128907522318
0.26236767661015414
0.2156143528216402
0.39021482433270804
0.3067579443415256
0.19198201895208955
0.10983613705985484
0.16085866112079583
0.15460879667614247
0.33340265538638836
0.3524314152978819
0.4029724632272069
0.15006901300665054
0.3838053152442533
0.29872935502394826
0.2484772895067271
0.2597484683544695
0.22376915344817616
0.1781524815175144
0.41324689923577906
0.3443075159849043
0.2611975628013019
0.30503096975179667
0.14306287512492422
0.3916597483699962
0.28039740251424095
0.2421570761709927
0.23580137341926222
0.3072226709573689
0.1316811631393231
0.22841633654145688
0.40441779931913624
0.11826482771663138
0.2520896628127721
0.13400157879915964
0.1903017890185117
0.21590754052311079
0.3431860657432154
0.15537772909348124
0.20545756438250729
0.43007948488570613
0.20849323881043136
0.23172163015379554
0.21920172162329044
0.1915514807106149
0.35467929183970726
0.24066234553757493
0.3066686302402343
0.2824761491875486
0.40048872877625874
0.1998862817193593
0.1304566415937961
0.13304207465684315
0.34509141517340547
0.3877320537048379
0.17837492131864052
0.1013096636965618
0.14071526995148864
0.16907423019761114
0.15727325785210422
0.2963913126043878
0.1384514369956077
0.3196155012017674
0.3178800752682893
0.332530967289824
0.12936787256373494
0.309660785300541
0.2921608535821021
0.2751733574316967
0.3915019220194911
0.2754786223509974
0.19067039111686057
0.2611332437714228
0.350522875188906
0.2671397329126747
0.31574518081175773
0.20363205542737828
0.2195800608269991
0.37059094494854505
0.29467202726682706
0.26922651232292294
0.32690352348816043
0.37627098026235173
0.21383536632062927
0.14458014578228673
0.42935790681806674
0.08548186298500071
0.3355497650149416
0.3822033976801841
0.31977114255968786
0.32215470712388794
0.3030613724176231
0.1495792667111303
0.13523183877287026
0.3114804333390141
0.36642292396506104
0.34677447533654027
0.2880272937131467
0.1858074343205064
0.3127459975132614
0.21724919183350122
0.17063806542150295
0.23361130302374944
0.2874779945206638
0.24421083643508457
0.2786034557235736
0.22759131422192613
0.2173333085088789
0.2789092716938677
0.23369662701746052
0.40441779931913624
0.16340294274174705
0.21987419061389457
0.21241380001701882
0.2724052262338402
0.2038392013257675
0.23097966116020474
0.07253699060015784
0.3573089859438351
0.2941209871289453
0.10437916225367583
0.38019518224708193
0.23435472138070557
0.28403204488960576
0.24856359558048802
0.23695155914808264
0.2329315903972895
0.22632325469104597
0.3943920271219318
0.21657817920346323
0.18666394417702836
0.3793156050533092
0.30864112953962075
0.21703978133652724
0.18637836004142738
0.3098158629225276
0.20398432114032483
0.32982712956222526
0.32175331224424053
0.18595013540697758
0.2930845916928022
0.25791151239939614
0.34980433620853757
0.11826482771663138
0.35634150695046063
0.21072322617840722
0.2099723432697862
0.3242044149137562
0.34072127866840163
0.28427368740670234
0.3162114947657353
0.11500081741014145
0.20222317494178055
0.2980229746235804
0.31179081191698066
0.15931171759588225
0.24096116429702685
0.34749252417916676
0.196420825143934
0.31487853822318
0.3372286987053742
0.19204351150351295
0.24117421426616714
0.16141483700430237
0.4247118666436218
0.3597827105731388
0.1900152009550935
0.16715326591531887
0.42847861982663926
0.3757070141176173
0.21028537981308393
0.2243594371172356
0.3456523591788613
0.15923272571505376
0.273777232466075
0.11009659066745392
0.10450833663787162
0.334364812271826
0.16779313732010448
0.27401753355892133
0.2680515939452287
0.20776497172749053
0.368585369457199
0.22577332315718368
0.23308016681738775
0.18442234016571235
0.24766266632445377
0.10615003783061772
0.26605361094855595
0.2607434075459638
0.18666394417702836
0.3947077164788173
0.3058050233969445
0.2408753466089486
0.20776497172749053
0.2421793198800386
0.28558916469687423
0.2506903367781993
0.26327699123202386
0.12154395420330166
0.26837858924389624
0.20761937412903608
0.3046321780754272
0.31661209744577457
0.2951343715866095
0.23724959334482998
0.38276772317137986
0.23308016681738775
0.22562556257001876
0.1355014676155688
0.2384645193847026
0.2539839228823395
0.14160718781515613
0.16545564972802296
0.1989155462872929
0.23301686633447127
0.1807448183338516
0.3716272058866513
0.23995694539441403
0.13611754976022516
0.4315224621111037
0.2629094606730086
0.23535480787577134
0.27356002376802113
0.3537123099150872
0.32293366210660523
0.23754769256736263
0.25590309261264077
0.24406108067119792
0.3789091414737935
0.10627955176773984
0.10627955176773984
0.15628562161306803
0.19936987832883246
0.18190142868694814
0.24170849002823058
0.22077858971115172
0.33387163611011517
0.27316732049332293
0.17801088972232215
0.2526053960366573
0.2606563556306499
0.2585802664277538
0.19730675442760726
0.19350059864087255
0.13686918540178494
0.3623483986645616
0.27845056670020796
0.215258675060658
0.09032873958271948
0.2883996901512288
0.14471653312001664
0.2532304524426737
0.31890325007027565
0.31210122870805146
0.18870607325108912
0.26496819212315037
0.22697776602016317
0.2716204121034158
0.20415046876909426
0.1554372712959855
0.3778720060214249
0.1276131081968357
0.35402650279601144
0.3415949229062545
0.19146946060916525
0.20222317494178055
0.24134589576973176
0.43312276043301745
0.3067579443415256
0.22046266218148125
0.27845056670020796
0.2037771467512286
0.11706263656095883
0.23707847101552582
0.2342913599489631
0.15937148305361593
0.2506263698496327
0.3161457194451678
0.28186343551202764
0.3062695771600378
0.2457315487771281
0.24787663684465044
0.144930445606266
0.15480632655469773
0.2195800608269991
0.22653412594313482
0.19380876505903422
0.132159900296825
0.3173895757542058
0.09825457121670678
0.30753253866217145
0.3087305249568346
0.375864646594971
0.3335589748455967
0.2952885086263788
0.3789091414737935
0.23044957418764822
0.17708105160236354
0.33380553199730223
0.16531595032263613
0.2308945303922142
0.3173237687201308
0.2905987354565074
0.41107929270830534
0.39366946991732665
0.19103913071180156
0.21139093927307584
0.33022957305579026
0.37987978305601355
0.21794207015005307
0.10555922022523434
0.33221843015782615
0.20245102216486022
0.11380421841113275
0.22864937945707242
0.23648252908979928
0.1499909675111093
0.25791151239939614
0.10522752855564632
0.13769827046537753
0.10653865446360977
0.30997095028620214
0.3891767848548753
0.3103705983368332
0.351712582757841
0.2978686489381699
0.377307942944459
0.17178244590607594
0.3838053152442533
0.27347225025770994
0.4202216278907166
0.3345872876838023
0.1622690940911865
0.2212830564249768
0.16431918574510573
0.17578892925081802
0.15846035357468136
0.27829769033626184
0.23437673183197638
0.1925563471136058
0.20863894796812166
0.3041442506809743
0.2605920509301328
0.15020630355424403
0.16829330619737348
0.17192312247720143
0.3251638400356618
0.30573947035890814
0.3286441662899279
0.3732273706871164
0.34374675147795997
0.2862263534268963
0.2694432229729409
0.1095022952130551
0.12652849209581973
0.20745266235323478
0.19189996905732498
0.363855517484317
0.25344517770715236
0.36162820905154525
0.3200165973136969
0.3110806076945428
0.3186578982994219
0.28311232508109774
0.28208155976332516
0.36282043532577246
0.26861815358466457
0.14030819111153936
0.2959051677405682
0.10713033576639919
0.18682713087661917
0.2580399408925623
0.16022373860146977
0.23989337048281467
0.17795011429546492
0.39816291049492303
0.23588684830419915
0.22180933506713307
0.2821697677065871
0.18666394417702836
0.3391311408565567
0.13625250535386368
0.2436979085417622
0.28714749350857416
0.153132413513967
0.28348385176337065
0.1588165859564845
0.24688989975275188
0.3458997202919537
0.23269777918224055
0.300451740809916
0.3355497650149416
0.2387407377568811
0.33022957305579026
0.28451536685826695
0.13509705955322793
0.28864187079379966
0.30118250721081274
0.254458766722542
0.23761117420493805
0.2351205581398561
0.2264493232410676
0.24224296953479507
0.19335685867336416
0.31092545537677185
0.2715327468391642
0.36250573962363
0.31707855727278866
0.22459172108795833
0.19710077387547975
0.2513785802946785
0.24817693250716288
0.3216634529052632
0.1442300046359265
0.3478062987486047
0.13181534983951915
0.2342060046630916
0.3441507552872667
0.261348976312027
0.22239871810858203
0.16679363387933932
0.3267475175859136
0.31021548808822186
0.22345243735064912
0.19467185376577
0.36673781322645305
0.29583984072660074
0.20038204926741043
0.2626707252261551
0.34072127866840163
0.2885767422885216
0.2264493232410676
0.09637742025486395
0.24361190754024287
0.19007659866111304
0.21911745851771114
0.19495970695669684
0.14860065423738722
0.21794207015005307
0.20724488857143264
0.37178476104787817
0.2427139861240768
0.4315224621111037
0.2798270220079061
0.27912707859485053
0.2782745158647968
0.3509275175226758
0.25560129490476124
0.25299320501783773
0.19518598136846388
0.3690578550524971
0.20265796582056794
0.2737125139475096
0.1420921179116721
0.1276131081968357
0.13810401825532903
0.39077945250394286
0.16659355930948982
0.34462105656580466
0.34605654677094033
0.316677890896215
0.3026629148115023
0.1436075479299146
0.33237469493959526
0.3537123099150872
0.11826482771663138
0.15768866629861666
0.26089477840516695
0.27812165020479096
0.2789741443754007
0.22577332315718368
0.27635303057342253
0.2929306069688006
0.21063961905438922
0.28644493072250243
0.27510859851507996
0.21095284527326952
0.27101123246573455
0.2749559929136013
0.13708092543711414
0.2095970928406925
0.18813385734644206
0.39920127768752
0.15804457906026848
0.36282043532577246
0.22465468288703438
0.29780327833712006
0.2081396323395205
0.20178855545291674
0.2028858983484907
0.2673561995162447
0.2749559929136013
0.21310379684886105
0.36178553123235146
0.2724698943836963
0.28466873034264006
0.26297383013521625
0.18291711440161307
0.2762651076949527
0.2682265528706982
0.2767464319940869
0.3431860657432154
0.24140951199777305
0.39599504478127234
0.1570560569975289
0.2754786223509974
0.30204445435043403
0.12248860611750667
0.2928653553447389
0.1794477832687914
0.2556654333266999
0.33975743780442114
0.20334192959838837
0.12713728383801437
0.38107483172868484
0.27231750757951545
0.11526320484133823
0.3357964685626993
0.25000240653676153
0.18515536833678847
0.14044386088603367
0.14805267523843424
0.15931171759588225
0.29826626793950994
0.13899299520804864
0.28317731296611104
0.18153606168460523
0.2229254656026748
0.2140656071414151
0.18862431330300222
0.38324094316039836
0.3091062050340321
0.16729324640094767
0.30793179959518857
0.3531503560984355
0.3574661884781384
0.19161294359989733
0.2935700888890066
0.2779687972357052
0.26128464941129315
0.2526919644679826
0.32135197606257326
0.22759131422192613
0.2630610263905412
0.3608172605032566
0.28558916469687423
0.2964566497612465
0.19994814641722825
0.2632126061464095
0.3996082061835662
0.34031763087755174
0.43544383796429686
0.15664094886460933
0.4155721137288183
0.16963544210476367
0.19957626999892053
0.147701010392572
0.35627510161475384
0.17099923094245162
0.3516462322646625
0.34708819876395136
0.19350059864087255
0.2699226636796397
0.17722250790855099
0.303216038286945
0.3173895757542058
0.3975981339737267
0.315344704901641
0.1807448183338516
0.12997899354184406
0.39527244988638643
0.2117455109241232
0.29559681602077104
0.26953077269184966
0.3730697875536546
0.31407790598149377
0.3881388072056531
0.3471787739574054
0.18907409959642052
0.21674632575848973
0.31819117767408134
0.27456298319642414
0.36034538079570644
0.2321670122319729
0.308331128449287
0.2940322052413238
0.12740407934302922
0.2724052262338402
0.34661762285182907
0.41107929270830534
0.24742630857898507
0.22473936093593083
0.385565204012972
0.24170849002823058
0.2168089540109711
0.15110866756180785
0.22735847212404914
0.2828058495411069
0.2934160726249213
0.1988537233918961
0.2664447024526567
0.306114715807996
0.3752341364475412
0.3176348112633094
0.3852496656303288
0.24453269894409269
0.34693133397898823
